<?xml version="1.0" standalone="no"?>
<!DOCTYPE svg PUBLIC "-//W3C//DTD SVG 1.1//EN" "http://www.w3.org/Graphics/SVG/1.1/DTD/svg11.dtd">
<svg xmlns="http://www.w3.org/2000/svg">
    <metadata>Generated by Fontastic.me</metadata>
    <defs>
        <font id="crosscomm-corebt" horiz-adv-x="512">
            <font-face font-family="crosscomm-corebt" units-per-em="512" ascent="480" descent="-32"/>
            <missing-glyph horiz-adv-x="512"/>

            <glyph glyph-name="mobile-menu" unicode="&#109;"
                   d="M475 128l0-37c0-5-1-9-5-12-4-4-8-6-13-6l-402 0c-5 0-9 2-13 6-4 3-5 7-5 12l0 37c0 5 1 9 5 13 4 3 8 5 13 5l402 0c5 0 9-2 13-5 4-4 5-8 5-13z m0 146l0-36c0-5-1-10-5-13-4-4-8-6-13-6l-402 0c-5 0-9 2-13 6-4 3-5 8-5 13l0 36c0 5 1 10 5 13 4 4 8 6 13 6l402 0c5 0 9-2 13-6 4-3 5-8 5-13z m0 147l0-37c0-5-1-9-5-13-4-3-8-5-13-5l-402 0c-5 0-9 2-13 5-4 4-5 8-5 13l0 37c0 5 1 9 5 12 4 4 8 6 13 6l402 0c5 0 9-2 13-6 4-3 5-7 5-12z"/>
            <glyph glyph-name="document" unicode="&#102;"
                   d="M366 174l0-19c0-2-1-4-3-6-2-2-4-3-6-3l-202 0c-2 0-4 1-6 3-2 2-3 4-3 6l0 19c0 2 1 5 3 6 2 2 4 3 6 3l202 0c2 0 4-1 6-3 2-1 3-4 3-6z m0 73l0-18c0-3-1-5-3-7-2-2-4-3-6-3l-202 0c-2 0-4 1-6 3-2 2-3 4-3 7l0 18c0 3 1 5 3 6 2 2 4 3 6 3l202 0c2 0 4-1 6-3 2-1 3-3 3-6z m-256-174l292 0 0 220-119 0c-7 0-14 2-19 8-5 5-8 11-8 19l0 119-146 0z m183 256l107 0c-2 6-4 10-6 12l-90 89c-2 3-6 5-11 7z m146-9l0-256c0-8-3-14-8-19-5-6-12-8-20-8l-310 0c-8 0-15 2-20 8-5 5-8 11-8 19l0 384c0 8 3 14 8 19 5 6 12 8 20 8l182 0c8 0 16-1 26-5 9-4 16-9 21-14l89-89c6-5 10-13 14-22 4-9 6-17 6-25z"/>
            <glyph glyph-name="file-text" unicode="&#70;"
                   d="M288 384l-160 0 0-32 160 0z m64 96l-288 0 0-448 384 0 0 352z m64-416l-320 0 0 384 224 0 96-96z m-288 64l256 0 0 32-256 0z m0 64l256 0 0 32-256 0z m0 64l256 0 0 32-256 0z"/>
            <glyph glyph-name="wallet" unicode="&#119;"
                   d="M320 192c0-18-14-32-32-32-18 0-32 14-32 32 0 18 14 32 32 32 18 0 32-14 32-32z m144 112c0 0 0 0 0 0l0 96 0 48c0 27-22 48-48 48l-328 0c-49 0-88-39-88-88l0-320c0-49 39-88 88-88l288 0c49 0 88 39 88 88l0 24c0 0 0 0 0 0 64 48 64 144 0 192z m-376 160l328 0c9 0 16-7 16-16l0-99c-5 2-10 3-16 3l0 0 0 80c0 9-7 16-16 16l-336 0c-9 0-16-7-16-16l0-63c-10 10-16 24-16 39 0 31 25 56 56 56z m312-48l-336 0 0 16 336 0z m0-16l0-16-336 0 0 16z m0-32l0-16-312 0c-9 0-17 2-24 6l0 10z m32-280c0-31-25-56-56-56l-288 0c-31 0-56 25-56 56l0 252c15-12 35-20 56-20l328 0c9 0 16-7 16-16l0-32-144 0c-44 0-80-36-80-80 0-44 36-80 80-80l144 0z m20 56l-164 0c-26 0-48 22-48 48 0 26 22 48 48 48l144 0c10 0 20 5 26 13 1 2 3 5 4 7 0 1 0 1 0 1 12-15 18-33 18-53 0-25-10-47-28-64z"/>
            <glyph glyph-name="print" unicode="&#112;"
                   d="M128 73l256 0 0 73-256 0z m0 183l256 0 0 110-46 0c-7 0-14 2-19 8-5 5-8 12-8 19l0 46-183 0z m329-18c0 5-2 9-5 13-4 3-8 5-13 5-5 0-9-2-13-5-4-4-5-8-5-13 0-5 1-10 5-13 4-4 8-6 13-6 5 0 9 2 13 6 3 3 5 8 5 13z m37 0l0-119c0-3-1-5-3-7-2-1-4-2-6-2l-64 0 0-46c0-8-3-14-8-19-6-6-12-8-20-8l-274 0c-8 0-14 2-20 8-5 5-8 11-8 19l0 46-64 0c-2 0-4 1-6 2-2 2-3 4-3 7l0 119c0 15 6 28 16 38 11 11 24 17 39 17l18 0 0 155c0 8 3 14 8 19 6 6 12 8 20 8l192 0c7 0 16-1 25-5 9-4 16-9 22-14l43-43c5-6 10-13 14-22 4-9 6-18 6-25l0-73 18 0c15 0 28-6 39-17 10-10 16-23 16-38z"/>
            <glyph glyph-name="angle-right" unicode="&#78;"
                   d="M335 238c0-3-1-5-3-7l-133-133c-2-2-5-3-7-3-2 0-5 1-7 3l-14 14c-2 2-3 4-3 7 0 2 1 5 3 6l112 113-112 112c-2 2-3 4-3 7 0 2 1 4 3 6l14 14c2 2 5 3 7 3 2 0 5-1 7-3l133-133c2-2 3-4 3-6z"/>
            <glyph glyph-name="angle-left" unicode="&#76;"
                   d="M344 357c0-3-1-5-3-7l-112-112 112-113c2-1 3-4 3-6 0-3-1-5-3-7l-14-14c-2-2-5-3-7-3-2 0-5 1-7 3l-133 133c-2 2-3 4-3 7 0 2 1 4 3 6l133 133c2 2 5 3 7 3 2 0 5-1 7-3l14-14c2-2 3-4 3-6z"/>
            <glyph glyph-name="tag" unicode="&#116;"
                   d="M224 480l-128 0-64-64 0-128 256-256 192 192z m-160-176l0 96 48 48 96 0 224-224-144-144z m192 48l-96-96 128-128 96 96z m-48-96l48 48 80-80-48-48z m-16 112c0 26-21 48-48 48-26 0-48-22-48-48 0-27 22-48 48-48 27 0 48 21 48 48z m-48-16c-9 0-16 7-16 16 0 9 7 16 16 16 9 0 16-7 16-16 0-9-7-16-16-16z"/>
            <glyph glyph-name="lock" unicode="&#108;"
                   d="M183 293l146 0 0 54c0 21-7 38-21 52-15 14-32 22-52 22-20 0-37-8-52-22-14-14-21-31-21-52z m238-28l0-164c0-8-3-15-8-20-6-5-12-8-20-8l-274 0c-8 0-14 3-20 8-5 5-8 12-8 20l0 164c0 8 3 14 8 20 6 5 12 8 20 8l9 0 0 54c0 35 13 66 38 91 25 25 55 37 90 37 35 0 65-12 90-37 25-25 38-56 38-91l0-54 9 0c8 0 14-3 20-8 5-6 8-12 8-20z"/>
            <glyph glyph-name="check-mark-2" unicode="&#99;"
                   d="M421 246l0-91c0-22-8-42-25-58-16-16-35-24-58-24l-237 0c-23 0-42 8-59 24-16 16-24 36-24 58l0 238c0 23 8 42 24 58 17 16 36 24 59 24l237 0c12 0 23-2 34-7 3-1 4-3 5-6 0-4 0-6-3-9l-14-14c-2-1-4-2-6-2-1 0-2 0-3 0-4 1-9 2-13 2l-237 0c-13 0-24-5-33-14-9-9-13-19-13-32l0-238c0-12 4-23 13-32 9-9 20-13 33-13l237 0c13 0 24 4 33 13 9 9 13 20 13 32l0 73c0 2 1 5 3 6l18 19c2 1 4 2 6 2 2 0 3 0 4 0 4-2 6-5 6-9z m66 140l-233-233c-5-4-10-6-16-6-7 0-12 2-17 6l-122 123c-5 5-7 10-7 17 0 6 2 11 7 16l31 31c5 5 10 7 16 7 7 0 12-2 17-7l75-75 185 185c4 5 10 7 16 7 6 0 12-2 16-7l32-31c4-5 6-10 6-17 0-6-2-11-6-16z"/>
            <glyph glyph-name="angle-up" unicode="&#97;"
                   d="M399 174c0-3-1-5-3-7l-15-14c-1-2-4-3-6-3-3 0-5 1-7 3l-112 112-112-112c-2-2-4-3-7-3-2 0-5 1-6 3l-15 14c-2 2-3 4-3 7 0 2 1 4 3 6l133 133c2 2 5 3 7 3 2 0 5-1 7-3l133-133c2-2 3-4 3-6z"/>
            <glyph glyph-name="remove" unicode="&#114;"
                   d="M426 134c0-7-3-14-8-19l-39-39c-5-5-12-8-20-8-7 0-14 3-19 8l-84 84-84-84c-5-5-12-8-19-8-8 0-15 3-20 8l-39 39c-5 5-8 12-8 19 0 8 3 14 8 20l84 84-84 84c-5 5-8 12-8 19 0 8 3 14 8 20l39 38c5 6 12 8 20 8 7 0 14-2 19-8l84-84 84 84c5 6 12 8 19 8 8 0 15-2 20-8l39-38c5-6 8-12 8-20 0-7-3-14-8-19l-84-84 84-84c5-6 8-12 8-20z"/>
            <glyph glyph-name="search-find" unicode="&#115;"
                   d="M347 274c0 36-12 66-37 91-25 25-55 37-91 37-35 0-65-12-90-37-25-25-38-55-38-91 0-35 13-65 38-90 25-25 55-38 90-38 36 0 66 13 91 38 25 25 37 55 37 90z m147-237c0-10-4-19-11-26-7-7-16-11-26-11-10 0-19 4-26 11l-98 98c-34-24-72-36-114-36-27 0-53 5-78 16-25 11-46 25-64 43-18 18-32 39-43 64-10 25-16 51-16 78 0 28 6 54 16 78 11 25 25 47 43 65 18 18 39 32 64 43 25 10 51 15 78 15 28 0 54-5 79-15 24-11 46-25 64-43 18-18 32-40 43-65 10-24 16-50 16-78 0-42-12-80-36-114l98-98c7-7 11-15 11-25z"/>
            <glyph glyph-name="cloud-upload" unicode="&#98;"
                   d="M256 320l-96-96 64 0 0-160 64 0 0 160 64 0z m160 32c-4 0-9-1-13-1-24 57-81 97-147 97-66 0-123-40-147-97-4 0-9 1-13 1-53 0-96-43-96-96 0-53 43-96 96-96 10 0 20 2 29 5 17-19 41-31 67-35l0 32c-25 6-46 22-56 44-11-9-25-14-40-14-35 0-64 29-64 64 0 35 29 64 64 64 13 0 24-4 34-10 11 60 63 106 126 106 63 0 115-46 125-106 10 6 22 10 35 10 35 0 64-29 64-64 0-35-29-64-64-64-5 0-10 1-15 2-14-21-38-34-65-34-6 0-11 1-16 2l0-32c5-1 11-2 16-2 31 0 58 12 79 32 0 0 0 0 1 0 53 0 96 43 96 96 0 53-43 96-96 96z"/>
        </font>
    </defs>
</svg>
